PCBNEW-LibModule-V1  Tue 25 Aug 2015 18:07:53 EEST
# encoding utf-8
Units mm
$INDEX
DRILL_4mm
NTYPE_EDGE
OSHW_COPPER_10MM
SMA_EDGE
$EndINDEX
$MODULE DRILL_4mm
Po 0 0 0 15 554C95D8 00000000 ~~
Li DRILL_4mm
Cd module 1 pin (ou trou mecanique de percage)
Kw DEV
Sc 0
AR 1pin
Op 0 0 0
T0 0 -5.08 1.016 1.016 0 0.254 N V 21 N "Drill 4mm"
T1 0 5.08 1.016 1.016 0 0.254 N I 21 N "P***"
DC 0 0 0 4 0.381 21
$PAD
Sh "1" C 7 7 0 0 0
Dr 4 0 0
At STD N 00E0FFFF
Ne 0 ""
Po 0 0
$EndPAD
$EndMODULE DRILL_4mm
$MODULE NTYPE_EDGE
Po 0 0 0 15 554C9A5E 00000000 ~~
Li NTYPE_EDGE
Sc 0
AR /4E7D5DB2
Op 0 0 0
T0 10.16 -1.27 1.524 1.524 0 0.3048 N V 21 N "NTYPE_E"
T1 10.16 1.27 1.524 1.524 0 0.3048 N I 21 N "NTYPE_EDGE"
DS 0 -16 2 -16 0.381 21
DS 2 -16 2 16 0.381 21
DS 2 16 0 16 0.381 21
DS 0 -16 0 16 0.381 21
DS 2 5.25 18.5 5.25 0.381 21
DS 18.5 -5.25 18.5 5.25 0.381 21
DS 2 -5.25 18.5 -5.25 0.381 21
$PAD
Sh "2" R 8.5 3 0 0 0
Dr 0 0 0
At CONN N 00808000
Ne 1 "N-000008"
Po -4.25 -10.5
$EndPAD
$PAD
Sh "2" R 8.5 3 0 0 0
Dr 0 0 0
At CONN N 00808000
Ne 1 "N-000008"
Po -4.25 10.5
$EndPAD
$PAD
Sh "1" R 8.5 3.5 0 0 0
Dr 0 0 0
At CONN N 00808000
Ne 0 ""
Po -4.25 0
$EndPAD
$EndMODULE NTYPE_EDGE
$MODULE OSHW_COPPER_10MM
Po 0 0 0 15 4F4F92AA 00000000 ~~
Li OSHW_COPPER_10MM
Sc 0
AR 
Op 0 0 0
T0 0 0 1.524 1.524 0 0.3048 N I 21 N "OSHW_COPPER_10MM"
T1 0 0 1.524 1.524 0 0.3048 N I 21 N "VAL**"
$PAD
Sh "" T 1.45796 1.4986 0 -0.2794 1800
Dr 0 0 0
At SMD N 00888000
Ne 0 ""
Po 0 -4.1656
$EndPAD
$PAD
Sh "" T 1.45796 1.4986 0 -0.2794 1350
Dr 0 0 0
At SMD N 00888000
Ne 0 ""
Po 2.94386 -2.94386
$EndPAD
$PAD
Sh "" T 1.45796 1.4986 0 -0.2794 900
Dr 0 0 0
At SMD N 00888000
Ne 0 ""
Po 4.1656 0
$EndPAD
$PAD
Sh "" T 1.45796 1.4986 0 -0.2794 450
Dr 0 0 0
At SMD N 00888000
Ne 0 ""
Po 2.94386 2.94386
$EndPAD
$PAD
Sh "" T 1.45796 1.4986 0 -0.2794 2250
Dr 0 0 0
At SMD N 00888000
Ne 0 ""
Po -2.94386 -2.94386
$EndPAD
$PAD
Sh "" T 1.45796 1.4986 0 -0.2794 2700
Dr 0 0 0
At SMD N 00888000
Ne 0 ""
Po -4.1656 0
$EndPAD
$PAD
Sh "" T 1.45796 1.4986 0 -0.2794 3150
Dr 0 0 0
At SMD N 00888000
Ne 0 ""
Po -2.94386 2.94386
$EndPAD
$PAD
Sh "" T 1.08204 2.29108 0 0.41402 1800
Dr 0 0 0
At SMD N 00888000
Ne 0 ""
Po 0 -2.39522
$EndPAD
$PAD
Sh "" T 1.08204 2.29108 0 0.41402 2025
Dr 0 0 0
At SMD N 00888000
Ne 0 ""
Po -0.9144 -2.21234
$EndPAD
$PAD
Sh "" T 1.08204 2.29108 0 0.41402 1575
Dr 0 0 0
At SMD N 00888000
Ne 0 ""
Po 0.9144 -2.21234
$EndPAD
$PAD
Sh "" T 1.08204 2.29108 0 0.41402 1350
Dr 0 0 0
At SMD N 00888000
Ne 0 ""
Po 1.69164 -1.69164
$EndPAD
$PAD
Sh "" T 1.08204 2.29108 0 0.41402 2250
Dr 0 0 0
At SMD N 00888000
Ne 0 ""
Po -1.69164 -1.69164
$EndPAD
$PAD
Sh "" T 1.08204 2.29108 0 0.41402 1125
Dr 0 0 0
At SMD N 00888000
Ne 0 ""
Po 2.21234 -0.9144
$EndPAD
$PAD
Sh "" T 1.08204 2.29108 0 0.41402 2475
Dr 0 0 0
At SMD N 00888000
Ne 0 ""
Po -2.21234 -0.9144
$EndPAD
$PAD
Sh "" T 1.08204 2.29108 0 0.41402 900
Dr 0 0 0
At SMD N 00888000
Ne 0 ""
Po 2.39522 0
$EndPAD
$PAD
Sh "" T 1.08204 2.29108 0 0.41402 2700
Dr 0 0 0
At SMD N 00888000
Ne 0 ""
Po -2.39522 0
$EndPAD
$PAD
Sh "" T 1.08204 2.29108 0 0.41402 2925
Dr 0 0 0
At SMD N 00888000
Ne 0 ""
Po -2.21234 0.9144
$EndPAD
$PAD
Sh "" T 1.08204 2.29108 0 0.41402 675
Dr 0 0 0
At SMD N 00888000
Ne 0 ""
Po 2.21234 0.9144
$EndPAD
$PAD
Sh "" T 1.08204 2.29108 0 0.41402 450
Dr 0 0 0
At SMD N 00888000
Ne 0 ""
Po 1.69164 1.69164
$EndPAD
$PAD
Sh "" T 1.08204 2.29108 0 0.41402 3150
Dr 0 0 0
At SMD N 00888000
Ne 0 ""
Po -1.69164 1.69164
$EndPAD
$PAD
Sh "" T 0.54102 2.29108 0 0.20828 3263
Dr 0 0 0
At SMD N 00888000
Ne 0 ""
Po -1.32842 1.99136
$EndPAD
$PAD
Sh "" T 0.54102 2.29108 0 0.20828 337
Dr 0 0 0
At SMD N 00888000
Ne 0 ""
Po 1.32842 1.99136
$EndPAD
$EndMODULE OSHW_COPPER_10MM
$MODULE SMA_EDGE
Po 0 0 0 15 55DC8492 00000000 ~~
Li SMA_EDGE
Sc 0
AR /4E7D5DB2
Op 0 0 0
T0 10.16 -1.27 1.524 1.524 0 0.3048 N V 21 N "SMA_E"
T1 10.16 1.27 1.524 1.524 0 0.3048 N I 21 N "SMA_EDGE"
DS 0 -4.76 1.65 -4.76 0.381 21
DS 1.65 -4.76 1.65 4.76 0.381 21
DS 1.65 4.76 0 4.76 0.381 21
DS 0 -4.76 0 4.76 0.381 21
DS 1.65 3.175 9.53 3.175 0.381 21
DS 9.53 3.175 9.53 -3.175 0.381 21
DS 1.65 -3.175 9.53 -3.175 0.381 21
$PAD
Sh "2" R 4.9 1.8 0 0 0
Dr 0 0 0
At CONN N 00808000
Ne 1 "N-000008"
Po -3.15 -4.25
$EndPAD
$PAD
Sh "2" R 4.9 1.8 0 0 0
Dr 0 0 0
At CONN N 00808000
Ne 1 "N-000008"
Po -3.15 4.25
$EndPAD
$PAD
Sh "1" R 5.6 1.5 0 0 0
Dr 0 0 0
At CONN N 00808000
Ne 0 ""
Po -2.8 0
$EndPAD
$PAD
Sh "2" R 4.9 1.8 0 0 0
Dr 0 0 0
At CONN N 00400001
Ne 1 "N-000008"
Po -3.15 -4.25
$EndPAD
$PAD
Sh "2" R 4.9 1.8 0 0 0
Dr 0 0 0
At CONN N 00400001
Ne 1 "N-000008"
Po -3.15 4.25
$EndPAD
$EndMODULE SMA_EDGE
$EndLIBRARY
